…
read_csv(file = "../data/bi01.csv")
```

    ## Rows: 45 Columns: 5
    ## ── Column specification ────────────────────────────────────────────────────────
    ## Delimiter: ","
    ## chr (2): fileID, notes
    ## dbl (3): f1, f2, vot
    ## 
    ## ℹ Use `spec()` to retrieve the full column specification for this data.
    ## ℹ Specify the column types or set `show_col_types = FALSE` to quiet this message.

    ## # A tibble: 45 × 5
    ##    fileID        f1    f2   vot notes
    ##    <chr>      <dbl> <dbl> <dbl> <chr>
    ##  1 bi01_kaka   651. 1637.  24.8 <NA> 
    ##  2 bi01_kaka1  714. 1568.  25.5 <NA> 
    ##  3 bi01_kaka2  709. 1560.  28.3 <NA> 
    ##  4 bi01_keke   495. 2168.  31.6 <NA> 
    ##  5 bi01_keke1  893. 2153.  32.4 <NA> 
    ##  6 bi01_keke2  579. 2339.  32.9 <NA> 
    ##  7 bi01_kiki   824. 2712.  18.5 <NA> 
    ##  8 bi01_kiki1  348. 2632.  52.8 <NA> 
    ##  9 bi01_kiki2  494. 2766.  50.5 <NA> 
    ## 10 bi01_koko   499. 1050.  30.9 <NA> 
    ## # ℹ 35 more rows
``` r
read_csv(file = "../data/bi02.csv")
```

    ## Rows: 45 Columns: 5
    ## ── Column specification ────────────────────────────────────────────────────────
    ## Delimiter: ","
    ## chr (1): fileID
    ## dbl (3): f1, f2, vot
    ## lgl (1): notes
    ## 
    ## ℹ Use `spec()` to retrieve the full column specification for this data.
    ## ℹ Specify the column types or set `show_col_types = FALSE` to quiet this message.

    ## # A tibble: 45 × 5
    ##    fileID        f1    f2   vot notes
    ##    <chr>      <dbl> <dbl> <dbl> <lgl>
    ##  1 bi02_kaka   780. 1573.  22.7 NA   
    ##  2 bi02_kaka1  795. 1549.  24.6 NA   
    ##  3 bi02_kaka2  553. 1506.  24.6 NA   
    ##  4 bi02_keke   468. 2213.  22.3 NA   
    ##  5 bi02_keke1  462. 2349.  19.4 NA   
    ##  6 bi02_keke2  540. 2308.  20.8 NA   
    ##  7 bi02_kiki   335. 2630.  35.0 NA   
    ##  8 bi02_kiki1  348. 2688.  18.9 NA   
    ##  9 bi02_kiki2  339. 2660.  28.9 NA   
    ## 10 bi02_koko   616.  988.  31.1 NA   
    ## # ℹ 35 more rows
``` r
read_csv(file = "../data/bi03.csv")
```

    ## Rows: 45 Columns: 5
    ## ── Column specification ────────────────────────────────────────────────────────
    ## Delimiter: ","
    ## chr (1): fileID
    ## dbl (3): f1, f2, vot
    ## lgl (1): notes
    ## 
    ## ℹ Use `spec()` to retrieve the full column specification for this data.
    ## ℹ Specify the column types or set `show_col_types = FALSE` to quiet this message.

    ## # A tibble: 45 × 5
    ##    fileID        f1    f2   vot notes
    ##    <chr>      <dbl> <dbl> <dbl> <lgl>
    ##  1 bi03_kaka  1081. 1898.  17.7 NA   
    ##  2 bi03_kaka1  836. 1495.  29.2 NA   
    ##  3 bi03_kaka2  831. 1654.  24.0 NA   
    ##  4 bi03_keke   829. 2389.  21.2 NA   
    ##  5 bi03_keke1  526. 2279.  22.2 NA   
    ##  6 bi03_keke2  501. 2509.  19.8 NA   
    ##  7 bi03_kiki   402. 2667.  34.5 NA   
    ##  8 bi03_kiki1  350. 2707.  22.2 NA   
    ##  9 bi03_kiki2  348. 2678.  24.9 NA   
    ## 10 bi03_koko   554.  836.  24.8 NA   
    ## # ℹ 35 more rows
``` r
read_csv(file = "../data/ne01.csv")
```

    ## Rows: 45 Columns: 5
    ## ── Column specification ────────────────────────────────────────────────────────
    ## Delimiter: ","
    ## chr (1): fileID
    ## dbl (3): f1, f2, vot
    ## lgl (1): notes
    ## 
    ## ℹ Use `spec()` to retrieve the full column specification for this data.
    ## ℹ Specify the column types or set `show_col_types = FALSE` to quiet this message.

    ## # A tibble: 45 × 5
    ##    fileID        f1    f2   vot notes
    ##    <chr>      <dbl> <dbl> <dbl> <lgl>
    ##  1 ne01_kaka   862. 1650.  8.45 NA   
    ##  2 ne01_kaka1  948. 1776. 23.6  NA   
    ##  3 ne01_kaka2 1062. 1779. 29.2  NA   
    ##  4 ne01_keke   471. 2487. 38.7  NA   
    ##  5 ne01_keke1  604  2466. 28.6  NA   
    ##  6 ne01_keke2  491. 2654. 25.4  NA   
    ##  7 ne01_kiki   343. 2845. 42.7  NA   
    ##  8 ne01_kiki1  965. 2272. 53.3  NA   
    ##  9 ne01_kiki2  439. 2781. 44.6  NA   
    ## 10 ne01_koko   666. 1083. 49.0  NA   
    ## # ℹ 35 more rows
``` r
read_csv(file = "../data/ne02.csv")
```

    ## Rows: 45 Columns: 5
    ## ── Column specification ────────────────────────────────────────────────────────
    ## Delimiter: ","
    ## chr (1): fileID
    ## dbl (3): f1, f2, vot
    ## lgl (1): notes
    ## 
    ## ℹ Use `spec()` to retrieve the full column specification for this data.
    ## ℹ Specify the column types or set `show_col_types = FALSE` to quiet this message.

    ## # A tibble: 45 × 5
    ##    fileID        f1    f2   vot notes
    ##    <chr>      <dbl> <dbl> <dbl> <lgl>
    ##  1 ne02_kaka  565.  1412.  39.8 NA   
    ##  2 ne02_kaka1 947.  2253.  52.7 NA   
    ##  3 ne02_kaka2  70.3 1504.  54.2 NA   
    ##  4 ne02_keke  469.  2409.  34.6 NA   
    ##  5 ne02_keke1 421.  2484.  45.1 NA   
    ##  6 ne02_keke2 496.  2239.  29.7 NA   
    ##  7 ne02_kiki  357.  2693.  61.8 NA   
    ##  8 ne02_kiki1 344.  2778.  82.7 NA   
    ##  9 ne02_kiki2 324.  2771.  57.6 NA   
    ## 10 ne02_koko  555.  1042.  44.3 NA   
    ## # ℹ 35 more rows
``` r
read_csv(file = "../data/ne03.csv")
```

    ## Rows: 45 Columns: 5
    ## ── Column specification ────────────────────────────────────────────────────────
    ## Delimiter: ","
    ## chr (1): fileID
    ## dbl (3): f1, f2, vot
    ## lgl (1): notes
    ## 
    ## ℹ Use `spec()` to retrieve the full column specification for this data.
    ## ℹ Specify the column types or set `show_col_types = FALSE` to quiet this message.

    ## # A tibble: 45 × 5
    ##    fileID        f1    f2   vot notes
    ##    <chr>      <dbl> <dbl> <dbl> <lgl>
    ##  1 ne03_kaka   768. 1804.  27.1 NA   
    ##  2 ne03_kaka1  819. 1725.  26.3 NA   
    ##  3 ne03_kaka2  881. 1548.  38.4 NA   
    ##  4 ne03_keke   656. 2639.  31.0 NA   
    ##  5 ne03_keke1  568. 1766.  32.0 NA   
    ##  6 ne03_keke2  562. 2564.  35.6 NA   
    ##  7 ne03_kiki   507. 2713.  37.3 NA   
    ##  8 ne03_kiki1  408. 2070.  75.6 NA   
    ##  9 ne03_kiki2  373. 2805.  61.0 NA   
    ## 10 ne03_koko   509. 1071.  45.9 NA   
    ## # ℹ 35 more rows
…
